srv.ItemData.DropIndex,,,srv.ItemData.Formulas,,,,srv.ItemData.Formulas,,,,srv.ItemData.Formulas,,,,srv.ItemData.Formulas,,
Category Name,Parent Category,,Category Name,Type,Price Muliplier,,Category Name,Type,Is Two Handed?,,Category Name,Type,tile range,,Category Name,Type,value
Unique Armor,Armor,,Potion,Price,0.25,,francisca,double_handed,0,,Battle Axe,range,5,,battle axe,spread,0.3
Chest Armor,Armor,,Axe,Price,2,,hatchet,double_handed,0,,Francisca,range,5,,francisca,spread,0.2
Cloth Armor,Chest Armor,,Food,Price,1.5,,barbed mace,double_handed,0,,Hatchet,range,4,,hatchet,spread,0.25
Shirt,Cloth Armor,,Sword,Price,3.5,,club,double_handed,0,,Pollaxe,range,6,,pollaxe,spread,0.6
Robe,Cloth Armor,,Blunt,Price,3.5,,flanged mace,double_handed,0,,Barbed Mace,range,5,,barbed mace,spread,0.3
Tunic,Cloth Armor,,Misc,Price,0.5,,hammer,double_handed,0,,Club,range,5,,club,spread,0.25
Doublet,Cloth Armor,,Meal,Price,3.5,,mace,double_handed,0,,Flanged Mace,range,5,,flanged mace,spread,0.2
Vest,Cloth Armor,,Staff,Price,0.5,,morningstar,double_handed,0,,Hammer,range,5,,Hammer,spread,0.4
Leather Armor,Armor,,quest,Price,2,,spiked mace,double_handed,0,,Mace,range,5,,mace,spread,0.35
Brigandine,Leather Armor,,barber,Price,0,,Dagger Family,double_handed,0,,Maul,range,6,,maul,spread,0.3
Gambeson,Leather Armor,,Produce,Price,0.5,,Shortsword,double_handed,0,,Morningstar,range,5,,morning star,spread,0.2
Jerkin,Leather Armor,,Ingredient,Price,0.7,,Falchion,double_handed,0,,Warhammer,range,6,,warhammer,spread,0.4
Metal Armor,Armor,,mineral,Price,10,,Cutlass,double_handed,0,,Dagger Family,range,4,,Dagger Family,spread,0.3
Cloth Armor,Armor,,mediclist,Price,10,,Saber,double_handed,0,,Polearm,range,7,,polearm,spread,0.6
Breastplate,Metal Armor,,brutelist,Price,10,,Cutlass,double_handed,0,,Staff,range,5,,staff,spread,0.4
Byrnie,Leather Armor,,alchemistlist,Price,10,,battle axe,double_handed,0,,Sword,range,5,,sword,spread,0.25
Chainmail,Metal Armor,,assassinlist,Price,2,,Spear,double_handed,0,,Crossbow,range,16,,crossbow,spread,0.6
Cuirass,Metal Armor,,drink,Price,2,,cane,double_handed,0,,Longbow,range,15,,longbow,spread,0.6
Haulberk,Metal Armor,,chemistry,Price,3,,crook,double_handed,0,,Shortbow,range,13,,shortbow,spread,0.6
Plate,Metal Armor,,tools,Price,1.2,,sceptre,double_handed,0,,Spiked Mace,range,5,,,,
Ringmail,Metal Armor,,militia,Price,3,,baselard,double_handed,0,,,,,,,,
Scale Mail,Metal Armor,,reagent,Price,1,,bastard sword,double_handed,0,,,,,,,,
Splint Mail,Metal Armor,,Polearm,Price,1,,broad sword,double_handed,0,,,,,,,,
Worn Leather,Leather Armor,,Dagger Family,Price,1,,estoc,double_handed,0,,,,,,,,
Boiled Leather,Leather Armor,,Starting,Price,0,,scimitar,double_handed,0,,,,,,,,
Hardened Leather,Leather Armor,,Shortbow,Price,1,,,,,,,,,,,,
Studded Leather,Leather Armor,,Longbow,Price,1,,,,,,,,,,,,
Rawhide Leather,Leather Armor,,Crossbow,Price,1,,,,,,,,,,,,
Thick Leather,Leather Armor,,Drink,Price,1,,,,,,,,,,,,
Rugged Leather,Leather Armor,,MealIngredient,Price,1,,,,,,,,,,,,
Breastplate,Chest Armor,,Mace,Price,1,,,,,,,,,,,,
Brigandine,Chest Armor,,Hammer,Price,1,,,,,,,,,,,,
Byrnie,Chest Armor,,Club,Price,1,,,,,,,,,,,,
Chainmail,Chest Armor,,Accessories,Price,1,,,,,,,,,,,,
Cuirass,Chest Armor,,Collectible,Price,1,,,,,,,,,,,,
Doublet,Chest Armor,,,,,,,,,,,,,,,,
Gambeson,Chest Armor,,,,,,,,,,,,,,,,
Haulberk,Chest Armor,,,,,,,,,,,,,,,,
Jerkin,Chest Armor,,,,,,,,,,,,,,,,
Plate,Chest Armor,,,,,,,,,,,,,,,,
Ringmail,Chest Armor,,,,,,,,,,,,,,,,
Robe,Chest Armor,,,,,,,,,,,,,,,,
Scale Mail,Chest Armor,,,,,,,,,,,,,,,,
Shirt,Chest Armor,,,,,,,,,,,,,,,,
Splint Mail,Chest Armor,,,,,,,,,,,,,,,,
Tunic,Chest Armor,,,,,,,,,,,,,,,,
Vest,Chest Armor,,,,,,,,,,,,,,,,
Head Armor,Armor,,,,,,,,,,,,,,,,
Armet,Head Armor,,,,,,,,,,,,,,,,
Barbute,Head Armor,,,,,,,,,,,,,,,,
Casque,Head Armor,,,,,,,,,,,,,,,,
Coif,Head Armor,,,,,,,,,,,,,,,,
Crown,Head Armor,,,,,,,,,,,,,,,,
Great Helm,Head Armor,,,,,,,,,,,,,,,,
Hatchet,Head Armor,,,,,,,,,,,,,,,,
Helm,Head Armor,,,,,,,,,,,,,,,,
Helmet,Head Armor,,,,,,,,,,,,,,,,
Mask,Head Armor,,,,,,,,,,,,,,,,
Sallet,Head Armor,,,,,,,,,,,,,,,,
Hood,Head Armor,,,,,,,,,,,,,,,,
Leg Armor,Armor,,,,,,,,,,,,,,,,
Breeches,Leg Armor,,,,,,,,,,,,,,,,
Britches,Leg Armor,,,,,,,,,,,,,,,,
Chausses,Leg Armor,,,,,,,,,,,,,,,,
Greaves,Leg Armor,,,,,,,,,,,,,,,,
Leggings,Leg Armor,,,,,,,,,,,,,,,,
Pants,Leg Armor,,,,,,,,,,,,,,,,
Poleyn,Leg Armor,,,,,,,,,,,,,,,,
Schynbalds,Leg Armor,,,,,,,,,,,,,,,,
Off Hand Armor,Armor,,,,,,,,,,,,,,,,
Shield,Off Hand Armor,,,,,,,,,,,,,,,,
Kite Shield,Off Hand Armor,,,,,,,,,,,,,,,,
Polar Shield,Off Hand Armor,,,,,,,,,,,,,,,,
Escutcheon,Off Hand Armor,,,,,,,,,,,,,,,,
Aegis,Off Hand Armor,,,,,,,,,,,,,,,,
Bucker,Off Hand Armor,,,,,,,,,,,,,,,,
Heater Shield,Off Hand Armor,,,,,,,,,,,,,,,,
Roundel,Off Hand Armor,,,,,,,,,,,,,,,,
Targe,Off Hand Armor,,,,,,,,,,,,,,,,
Necklaces,Accessories,,,,,,,,,,,,,,,,
Rings,Accessories,,,,,,,,,,,,,,,,
Tomes,Accessories,,,,,,,,,,,,,,,,
Orbs,Accessories,,,,,,,,,,,,,,,,
InventoryExpend,Accessories,,,,,,,,,,,,,,,,
BankExpend,Accessories,,,,,,,,,,,,,,,,
Melee,Weapon,,,,,,,,,,,,,,,,
Unique Weapon,Weapon,,,,,,,,,,,,,,,,
Starting,Melee,,,,,,,,,,,,,,,,
Axe,Melee,,,,,,,,,,,,,,,,
Battle Axe,Axe,,,,,,,,,,,,,,,,
Francisca,Axe,,,,,,,,,,,,,,,,
Hatchet,Axe,,,,,,,,,,,,,,,,
Pollaxe,Axe,,,,,,,,,,,,,,,,
Blunt,Melee,,,,,,,,,,,,,,,,
Barbed Mace,Blunt,,,,,,,,,,,,,,,,
Club,Blunt,,,,,,,,,,,,,,,,
Flanged Mace,Blunt,,,,,,,,,,,,,,,,
Hammer,Blunt,,,,,,,,,,,,,,,,
Mace,Blunt,,,,,,,,,,,,,,,,
Maul,Blunt,,,,,,,,,,,,,,,,
Morningstar,Blunt,,,,,,,,,,,,,,,,
Spiked Mace,Blunt,,,,,,,,,,,,,,,,
Warhammer,Blunt,,,,,,,,,,,,,,,,
Dagger Family,Melee,,,,,,,,,,,,,,,,
Cinqueda,Dagger Family,,,,,,,,,,,,,,,,
Dagger,Dagger Family,,,,,,,,,,,,,,,,
Dirk,Dagger Family,,,,,,,,,,,,,,,,
Misericorde,Dagger Family,,,,,,,,,,,,,,,,
Knife,Dagger Family,,,,,,,,,,,,,,,,
Stiletto,Dagger Family,,,,,,,,,,,,,,,,
Polearm,Melee,,,,,,,,,,,,,,,,
Bardiche,Polearm,,,,,,,,,,,,,,,,
Glaive,Polearm,,,,,,,,,,,,,,,,
Halberd,Polearm,,,,,,,,,,,,,,,,
Harpoon,Polearm,,,,,,,,,,,,,,,,
Lance,Polearm,,,,,,,,,,,,,,,,
Partisan,Polearm,,,,,,,,,,,,,,,,
Pike,Polearm,,,,,,,,,,,,,,,,
Scythe,Polearm,,,,,,,,,,,,,,,,
Spear,Polearm,,,,,,,,,,,,,,,,
Trident,Polearm,,,,,,,,,,,,,,,,
Voulge,Polearm,,,,,,,,,,,,,,,,
Staff,Melee,,,,,,,,,,,,,,,,
Cane,Staff,,,,,,,,,,,,,,,,
Crook,Staff,,,,,,,,,,,,,,,,
Quarterstaff,Staff,,,,,,,,,,,,,,,,
Sceptre,Staff,,,,,,,,,,,,,,,,
Sword,Melee,,,,,,,,,,,,,,,,
Baselard,Sword,,,,,,,,,,,,,,,,
Bastard Sword,Sword,,,,,,,,,,,,,,,,
Broadsword,Sword,,,,,,,,,,,,,,,,
Claymore,Sword,,,,,,,,,,,,,,,,
Cutlass,Sword,,,,,,,,,,,,,,,,
Estoc,Sword,,,,,,,,,,,,,,,,
Falchion,Sword,,,,,,,,,,,,,,,,
Flamberge,Sword,,,,,,,,,,,,,,,,
Greatsword,Sword,,,,,,,,,,,,,,,,
Longsword,Sword,,,,,,,,,,,,,,,,
Saber,Sword,,,,,,,,,,,,,,,,
Scimitar,Sword,,,,,,,,,,,,,,,,
Shortsword,Sword,,,,,,,,,,,,,,,,
Zweihander,Sword,,,,,,,,,,,,,,,,
Ranged,Weapon,,,,,,,,,,,,,,,,
Shortbow,Ranged,,,,,,,,,,,,,,,,
Longbow,Ranged,,,,,,,,,,,,,,,,
Crossbow,Ranged,,,,,,,,,,,,,,,,
Adamantine,Materials,,,,,,,,,,,,,,,,
Boiled Leather,Materials,,,,,,,,,,,,,,,,
Bone,Materials,,,,,,,,,,,,,,,,
Bronze,Materials,,,,,,,,,,,,,,,,
Cotton,Materials,,,,,,,,,,,,,,,,
Hardened Leather,Materials,,,,,,,,,,,,,,,,
Leather,Materials,,,,,,,,,,,,,,,,
Linen,Materials,,,,,,,,,,,,,,,,
Mythril,Materials,,,,,,,,,,,,,,,,
Obsidian,Materials,,,,,,,,,,,,,,,,
Orichalcum,Materials,,,,,,,,,,,,,,,,
Samite,Materials,,,,,,,,,,,,,,,,
Silk,Materials,,,,,,,,,,,,,,,,
Steel,Materials,,,,,,,,,,,,,,,,
Studded Leather,Materials,,,,,,,,,,,,,,,,
Wood,Materials,,,,,,,,,,,,,,,,
Wool,Materials,,,,,,,,,,,,,,,,
Potion,Consumable,,,,,,,,,,,,,,,,
Positive Potion,Potion,,,,,,,,,,,,,,,,
Buff Potion,Positive Potion,,,,,,,,,,,,,,,,
Health Restorative,Positive Potion,,,,,,,,,,,,,,,,
Status Restorative,Positive Potion,,,,,,,,,,,,,,,,
Negative Potion,Potion,,,,,,,,,,,,,,,,
Debuff Potion,Negative Potion,,,,,,,,,,,,,,,,
Dot,Negative Potion,,,,,,,,,,,,,,,,
Instant Damage Potion,Negative Potion,,,,,,,,,,,,,,,,
Food,Consumable,,,,,,,,,,,,,,,,
Drink,Food,,,,,,,,,,,,,,,,
Meal Recipe,Food,,,,,,,,,,,,,,,,
Meal Ingredient,Food,,,,,,,,,,,,,,,,
Meal,Food,,,,,,,,,,,,,,,,
Hairstyle,Consumable,,,,,,,,,,,,,,,,
Men Style,Hairstyle,,,,,,,,,,,,,,,,
Woman Style,Hairstyle,,,,,,,,,,,,,,,,
Quest,Material,,,,,,,,,,,,,,,,
Collection,Quest,,,,,,,,,,,,,,,,
Single Use,Quest,,,,,,,,,,,,,,,,
Multiple Use,Quest,,,,,,,,,,,,,,,,
Crafting,Material,,,,,,,,,,,,,,,,
Chemistry,Crafting,,,,,,,,,,,,,,,,
Plants,Chemistry,,,,,,,,,,,,,,,,
Potion Reagent,Chemistry,,,,,,,,,,,,,,,,
Boiling,Chemistry,,,,,,,,,,,,,,,,
Brewing,Chemistry,,,,,,,,,,,,,,,,
Metallurgy,Crafting,,,,,,,,,,,,,,,,
Mining,Metallurgy,,,,,,,,,,,,,,,,
Refining,Metallurgy,,,,,,,,,,,,,,,,
Forging,Metallurgy,,,,,,,,,,,,,,,,
Leatherworking,Crafting,,,,,,,,,,,,,,,,
Skinning,Leatherworking,,,,,,,,,,,,,,,,
Tanning,Leatherworking,,,,,,,,,,,,,,,,
Fitting,Leatherworking,,,,,,,,,,,,,,,,
Tailoring,Crafting,,,,,,,,,,,,,,,,
Spinning,Tailoring,,,,,,,,,,,,,,,,
Weaving,Tailoring,,,,,,,,,,,,,,,,
Sewing,Tailoring,,,,,,,,,,,,,,,,
Woodworking,Crafting,,,,,,,,,,,,,,,,
Logging,Woodworking,,,,,,,,,,,,,,,,
Sawing,Woodworking,,,,,,,,,,,,,,,,
Carpentry,Woodworking,,,,,,,,,,,,,,,,
Enchanting,Crafting,,,,,,,,,,,,,,,,
Salvaging,Enchanting,,,,,,,,,,,,,,,,
Combining,Enchanting,,,,,,,,,,,,,,,,
ArmorRecipe,Crafting,,,,,,,,,,,,,,,,
HousingObject,Housing,,,,,,,,,,,,,,,,
HousingBlock,Housing,,,,,,,,,,,,,,,,
SingleUseCollect,Collectible,,,,,,,,,,,,,,,,
Loot Bag,Container,,,,,,,,,,,,,,,,
